1 3 2 5 77 77 8 1 11 200 8888 0 77 77 1 18 7 30 1 1
2 3 2 5 77 77 8 1 11 8888 8888 0 77 77 1 18 7 35 1 1
3 3 2 5 77 77 8 1 11 1745 8888 0 77 77 1 18 7 30 2 1
4 1 2 4 77 77 2 1 8 1600 8888 0 88 88 1 24 16 60 2 7
5 1 2 1 77 77 1 1 1 700 4 174 8 8 1 24 23 60 2 1
6 2 2 5 77 77 2 12 30 1930 6 100 8 8 1 24 25 60 2 1
7 1 2 4 77 77 2 1 10 1730 8888 0 5 8 1 25 15 40 2 1
8 2 2 4 77 77 2 12 30 2145 8888 0 2 77 1 25 25 60 2 1
9 2 2 4 77 77 2 1 4 2100 8888 0 2 77 1 26 22 50 2 2
10 2 1 4 77 77 2 1 6 2000 8888 0 2 77 1 26 20 45 2 2
11 2 2 4 77 77 2 1 6 1130 8888 0 2 77 1 27 21 65 2 7
12 3 2 3 77 77 1 1 14 230 2 30 77 77 1 31 27 50 1 1
13 1 2 1 77 77 8 1 15 2200 8888 0 8 8 2 1 17 90 2 1
14 1 1 4 77 77 8 1 9 105 8888 0 8 8 2 3 25 60 2 2
15 1 2 5 77 77 8 1 19 1900 8888 0 1 8 2 3 15 30 2 1
16 3 2 1 77 77 8 1 8 422 2 216 77 77 2 3 26 45 2 1
17 3 2 3 77 77 8 1 16 400 8888 117 77 77 2 4 19 120 2 1
18 3 2 2 77 77 8 1 13 2100 1 121 77 77 2 8 26 40 2 1
19 2 1 3 77 77 8 12 2 400 8888 0 2 77 2 9 69 85 2 1
20 1 2 5 77 77 8 1 22 2200 8888 0 8 8 2 9 18 110 2 1
21 2 1 5 77 77 1 1 14 1000 8888 0 8 4 2 10 27 35 2 1
22 2 2 5 77 77 8 7 18 2200 8888 0 3 77 2 11 208 60 2 2
23 2 1 7 77 77 8 1 5 8888 8888 0 2 77 2 14 40 60 2 1
24 3 8 6 77 77 8 1 23 2200 8888 0 8 77 2 15 23 40 1 1
25 1 2 1 77 77 8 2 5 900 8888 0 8 8 2 15 10 40 2 1
26 2 8 7 77 77 8 1 31 8888 8888 0 7 8 2 16 16 90 2 2
27 2 2 4 77 77 8 1 16 2030 8888 0 2 77 2 24 39 125 2 2
28 1 1 2 77 77 1 1 26 1430 8888 0 5 8 2 26 31 90 2 1
29 1 1 7 77 77 8 2 14 2245 8888 0 88 88 2 28 14 40 2 1
30 2 1 2 77 77 8 6 28 2245 8888 0 7 77 3 1 246 60 1 1
31 2 1 7 77 77 1 1 27 2230 8888 0 2 77 3 1 33 60 2 1
32 2 2 5 77 77 8 2 18 530 8888 0 5 77 3 4 14 70 2 1
33 3 2 1 77 77 1 2 12 230 11 140 77 77 3 4 20 60 2 1
34 1 2 4 77 77 8 2 27 1730 8888 0 3 8 3 7 8 40 2 1
35 2 2 1 77 77 8 11 3 2130 8888 0 2 77 3 8 125 75 2 1
36 2 2 4 77 77 8 2 15 1830 8888 0 2 77 3 8 21 40 2 2
37 4 2 4 77 77 8 2 13 1300 8888 0 8 5 3 11 26 50 2 3
38 2 2 4 7 77 8 11 25 1500 8888 0 2 77 3 15 110 120 1 1
39 3 2 5 77 77 8 2 12 1800 1 34 77 77 3 17 33 90 2 1
40 3 2 1 77 77 1 2 19 2400 5 205 77 77 3 18 27 55 2 1
41 1 2 2 77 77 8 3 7 2000 8888 0 4 8 3 18 11 50 2 1
42 3 2 3 77 77 1 2 11 900 11 187 77 77 3 21 38 60 2 1
43 1 2 2 3 77 1 3 1 1850 5 227 2 8 3 22 21 120 1 1
44 2 1 4 77 77 8 2 28 1400 8888 0 2 77 3 22 22 70 2 1
45 2 1 2 77 77 8 9 9 2300 8888 0 7 77 3 23 194 60 1 1
46 3 2 5 77 77 7 3 12 1100 77777 77777 77 77 3 28 16 40 2 1
47 3 2 4 77 77 8 3 14 1900 5 45 77 77 3 29 15 90 1 1
48 4 2 1 77 77 8 3 14 2100 4 274 77 77 3 30 16 90 2 1
49 3 1 3 77 77 8 3 21 8 8888 29 77 77 3 31 10 35 1 1
50 1 2 4 77 77 8 4 1 100 77777 77777 8 8 4 5 4 60 2 2
51 2 1 3 77 77 1 2 12 1300 8888 0 2 77 4 7 54 90 1 1
52 2 2 4 77 77 8 3 14 1850 8888 0 2 77 4 7 24 90 2 1
53 2 2 1 77 77 8 2 6 2000 8888 0 3 77 4 7 60 60 2 1
54 3 2 5 77 77 8 3 21 1500 16 84 77 77 4 8 18 75 2 1
55 2 1 4 77 77 8 12 19 2200 8888 0 3 77 4 8 110 45 2 2
56 2 1 5 77 77 8 12 17 1230 8888 0 2 77 4 9 113 120 1 2
57 2 2 4 77 77 8 3 19 2000 77777 77777 2 77 4 11 23 80 2 1
58 2 1 2 6 77 1 12 20 100 8888 0 2 77 4 12 113 75 2 1
59 2 2 4 77 77 8 3 27 2100 77777 77777 2 77 4 15 19 120 2 7
60 2 2 4 77 77 8 3 12 800 8888 0 5 77 4 18 37 60 2 2
61 3 1 2 77 77 1 3 29 1045 2 182 77 77 4 18 20 35 2 1
62 2 1 2 77 77 8 1 27 1500 8888 0 2 77 4 19 82 75 2 1
63 2 2 7 77 77 8 3 23 2000 8888 0 7 77 4 19 27 50 1 1
64 1 2 1 77 77 1 4 2 2000 10 365 8 8 4 21 19 75 2 1
65 1 1 4 77 77 8 4 23 1500 8888 0 8 8 4 26 3 90 2 2
66 2 1 1 77 77 8 8 13 1830 8888 0 1 77 4 27 257 60 2 2
67 2 2 7 7 77 8 3 29 8888 77777 77777 4 77 4 27 29 60 2 2
68 1 1 5 3 1 1 4 13 100 1 120 4 77 4 27 14 60 2 1
69 2 2 4 77 77 8 4 22 900 8888 0 7 77 4 28 6 60 2 2
70 4 2 4 77 77 8 4 23 2000 8888 0 8 8 4 28 5 60 2 1
71 2 2 3 77 77 8 4 4 2000 5 32 7 2 4 30 26 90 2 1
72 3 2 3 77 77 8 4 18 1000 13 56 77 77 5 2 14 60 2 1
73 2 1 4 77 77 8 4 17 100 8888 0 77 77 5 3 16 65 2 1
74 4 2 1 2 77 1 6 22 200 8888 0 1 7 5 3 315 120 2 1
75 3 2 3 77 77 7 4 18 630 8888 30 77 77 5 5 17 40 1 1
76 1 2 1 77 77 1 4 15 2000 4 298 8 8 5 5 20 90 2 1
77 2 1 2 7 7 1 3 17 2015 1 34 2 77 5 9 53 70 2 1
78 3 2 3 77 77 8 4 13 1000 8888 0 77 77 5 9 26 40 2 1
79 2 1 2 77 77 8 2 22 2200 8888 0 2 77 5 10 77 60 1 1
80 3 1 3 77 77 8 4 19 100 77777 30 77 77 5 10 21 45 1 1
81 2 1 4 77 77 8 3 27 800 8888 0 7 77 5 10 44 85 2 2
82 3 2 4 77 77 8 4 14 1530 14 45 77 77 5 16 32 60 2 1
83 2 1 3 77 77 8 3 10 1030 8888 0 2 77 5 18 69 50 1 1
84 2 2 1 77 77 8 4 17 450 4 147 1 77 5 18 31 75 2 1
85 3 2 1 77 77 8 5 2 110 7 83 77 77 5 19 17 60 2 1
86 1 2 1 77 77 8 4 29 2200 2 300 7 77 5 20 21 60 2 1
87 2 1 3 77 77 8 3 28 1750 8888 0 2 77 5 24 57 60 1 1
88 3 2 2 77 77 8 5 10 2000 6 50 77 77 5 24 14 50 1 1
89 2 1 5 77 77 8 12 8 77777 8888 0 3 77 5 24 167 65 2 1
90 2 2 5 77 77 8 5 3 1500 8888 0 7 77 5 25 22 90 2 1
91 3 2 1 77 77 8 4 26 2030 4 102 77 77 5 26 30 120 2 1
92 2 2 4 77 77 8 5 1 1600 8888 0 7 77 5 26 25 60 2 2
93 2 2 5 1 77 8 5 15 500 8888 0 8 3 5 31 16 90 2 2
94 2 2 3 77 77 8 5 2 2430 77777 77777 4 77 6 2 31 90 2 3
95 3 2 3 77 77 8 5 17 2040 3 33 77 77 6 6 20 50 1 1
96 2 1 2 77 77 8 3 13 2400 8888 0 2 77 6 9 88 60 2 1
97 2 1 3 77 77 8 4 3 1800 8888 0 2 77 6 9 67 60 1 1
98 2 1 3 77 77 7 10 15 200 8888 0 6 77 6 14 607 45 1 2
99 3 8 3 77 77 8 6 2 1200 5 52 77 77 6 16 14 60 2 1
100 1 1 4 7 77 8 5 30 1600 8888 0 8 8 6 16 17 120 2 1
101 3 2 3 77 77 8 6 4 1950 3 31 77 77 6 17 13 50 2 1
102 1 8 4 77 77 8 6 20 2200 8888 0 4 77 6 23 3 75 2 1
103 3 2 2 77 77 8 6 11 1725 4 121 77 77 6 27 16 55 2 1
104 4 1 4 77 77 8 5 29 2200 8888 0 3 8 6 28 30 90 2 1
105 2 2 7 77 77 8 5 15 2030 8888 0 8 8 6 30 46 35 2 1
106 4 2 4 77 77 8 6 1 1800 8888 0 8 8 7 8 37 60 2 1
107 4 1 2 77 77 8 5 26 2200 1 173 7 77 7 12 16 65 2 1
108 3 2 4 77 77 8 7 3 2000 9 22 77 77 7 20 17 55 2 1
109 3 2 4 77 77 8 7 10 800 3 38 77 77 7 21 11 90 2 1
110 4 2 4 77 77 8 7 5 2330 8888 0 7 77 7 26 21 75 2 2
111 2 2 4 77 77 8 7 12 1800 21 43 6 77 7 26 14 50 2 1
112 1 1 2 77 77 8 7 20 1945 8888 0 5 77 7 29 9 50 1 1
113 3 2 1 77 77 8 7 3 430 77777 235 77 77 7 29 26 50 2 1
114 1 1 4 77 77 8 6 4 2100 3 162 8 8 8 3 60 60 2 1
115 3 2 7 77 77 8 7 23 1900 5 64 77 77 8 3 11 50 2 1
116 1 8 1 77 77 8 7 1 1800 3 177 5 8 8 3 33 60 2 1
117 4 2 1 77 77 8 7 16 2145 3 220 8 8 8 8 23 120 2 1
118 1 2 5 77 77 8 7 14 2200 8888 0 5 8 8 16 33 75 2 1
119 4 1 2 77 77 8 7 20 1900 6 193 8 8 8 19 30 60 2 1
120 1 2 7 77 77 8 7 28 845 8888 0 8 77 8 23 26 75 2 1
121 1 2 4 77 77 8 7 18 8888 8888 0 1 77 8 24 37 90 2 2
122 1 1 5 77 77 8 7 30 1800 8888 0 8 8 8 29 30 45 2 1
123 1 2 1 77 77 8 8 18 2400 8888 0 5 8 8 30 12 60 2 1
124 1 3 1 77 77 8 7 24 2430 2 159 8 8 8 30 37 75 2 1
125
126
127
128
129
130
131
132
133
134
135
136
137
138
139
140
141
142
143
144
145
146
147
148
149
150
151
152
153
154
155
156
157
158
159
160
161
162
163
164
165
166
167
168
169
170
171
172
173
174
175
176
177
178
179
180
181
182
183
184
185
186
187
188
189
190
191
192
193
194
195
196
197
198
199
200
201
202
203
204
205
206
207
208
209
210
211
212
213
214
215
216
217
218
219
220
221
222
223
224
225
226
227
228
229
230
231
232
233
234
235
236
237
238
239
240
241
242
243
244
245
246
247
248
249
250
251
252
253
254
255
256
257
258
259
260
261
262
263
264
265
266
267
268
269
270
271
272
273
274
275
276
277
278
279
280
281
282
283
284
285
286
287
288
289
290
291
292
293
294
295
296
297
298
299
300
301
302
303
304
305
306
307
308
309
310
311
312
313
314
315
316
317
318
319
320
321
322
323
324
325
326
327
328
329
330
331
332
333
334
335
336
337
338
339
340
341
342
343
344
345
346
347
348
349
350
351
352
353
354
355
356
357
358
359
360
361
362
363
364
365
366
367
368
369
370
371
372
373
374
375
376
377
378
379
380
381
382
383
384
385
386
387
388
389
390
391
392
393
394
395
396
397
398
399
400
401
402
403
404
405
406
407
408
409
410
411
412
413
414
415
416
417
418
419
420
421
422
423
424
425
426
427
428
429
430
431
432
433
434
435
436
437
438
439
440
441
442
443
444
445
446
447
448
449
450
451
452
453
454
455
456
457
458
459
460
461
462
463
464
465
466
467
468
469
470
471
472
473
474
475
476
477
478
479
480
481
482
483
484
485
486
487
488
489
490
491
492
493
494
495
496
497
498
499
500 2 2 3 77 77 8 1 16 1000 8888 0 2 77 2 16 31 45 1 1
501 1 1 1 77 77 8 1 25 1600 8888 0 2 8 2 17 23 45 2 1
502 2 2 4 77 77 1 1 7 1900 8888 0 8 77 2 24 48 120 2 2
503 1 1 1 77 77 1 1 27 1430 8888 0 5 8 2 26 30 90 2 1
504 3 2 5 77 77 8 2 14 1200 9 53 77 77 2 28 14 60 1 1
505 2 1 5 77 77 8 12 23 1900 8888 0 4 77 3 1 68 60 2 2
506 2 1 3 2 77 1 11 26 1830 8888 0 2 77 3 1 95 90 1 1
507 2 1 7 77 77 8 7 7 1000 8888 0 2 77 2 3 211 135 2 2
508 2 1 7 77 77 8 9 7 1500 8888 0 2 77 3 3 177 60 2 1
509 2 1 7 77 77 1 11 8 2100 8888 0 2 77 3 2 114 60 2 1
510 1 1 4 77 77 8 2 11 1730 8888 0 8 8 3 4 21 60 2 2
511 2 2 3 77 77 8 2 12 2030 8888 0 2 77 3 7 23 90 1 1
512 1 2 1 77 77 1 2 5 1950 2 128 8 8 3 8 31 60 2 1
513 2 1 3 7 77 8 1 31 1430 8888 0 2 77 3 10 38 60 2 8
514 1 2 1 77 77 1 2 22 2150 8888 0 2 8 3 10 16 60 2 1
515 1 2 4 77 77 8 2 12 730 8888 0 8 8 3 15 31 60 2 1
516 2 2 3 77 77 8 2 16 1830 8888 0 2 77 3 15 27 120 2 8
517 2 1 2 77 77 8 9 8 1900 8888 0 7 77 3 15 188 65 1 1
518 2 1 3 77 77 8 3 3 1210 8888 0 4 77 3 15 12 60 2 2
519 2 2 1 2 77 8 12 7 2230 8888 0 7 77 3 16 99 90 2 1
520 1 2 7 77 77 8 2 25 2255 8888 0 8 8 3 19 22 55 2 1
521 2 2 5 77 77 8 2 16 2200 8888 0 8 8 3 19 31 85 2 1
522 2 2 4 77 77 8 3 13 1100 2 81 4 77 3 21 8 90 2 1
523 3 2 3 77 77 1 3 10 1500 7 109 77 77 3 21 11 55 1 1
524 1 2 3 77 77 8 3 12 30 8888 0 8 8 3 22 10 70 2 1
525 1 1 4 77 77 8 2 26 1828 8888 0 8 8 3 23 25 55 2 2
526 2 1 2 77 77 8 2 14 1205 8888 0 7 77 3 22 36 90 2 1
527 3 1 2 77 77 8 3 11 56 8888 0 77 77 3 24 13 60 1 1
528 4 1 4 77 77 8 1 19 1300 8888 0 2 8 3 23 63 65 2 1
529 1 1 3 77 77 8 3 9 1800 4 0 1 8 3 24 15 60 2 1
530 2 2 3 77 77 8 3 26 100 8888 0 2 77 3 31 5 40 1 3
531 1 2 2 77 77 8 3 25 1530 8888 0 1 8 3 31 6 65 2 1
532 3 2 5 77 77 8 3 12 8888 15 233 77 77 3 31 19 65 2 1
533 2 1 2 77 77 8 6 88 100 8888 0 7 77 4 2 888 40 1 8
534 2 7 4 77 77 7 3 15 8888 77777 77777 4 77 4 5 888 80 2 2
535 3 2 5 77 77 8 3 16 1140 6 77 77 77 4 5 20 40 2 1
536 1 2 4 77 77 8 3 5 2100 1 47 8 8 4 4 30 75 2 1
537 2 2 3 77 77 8 3 10 330 8888 0 6 77 4 5 26 70 1 1
538 2 2 4 77 77 8 3 12 2200 8888 0 5 77 4 7 26 50 2 7
539 3 2 2 77 77 8 3 30 2200 4 128 77 77 4 8 9 50 2 1
540 3 2 4 77 77 8 3 16 1138 8 52 77 77 4 7 22 60 2 1
541 3 2 5 77 77 8 3 16 830 5 37 77 77 4 6 888 35 1 1
542 2 2 4 77 77 8 3 26 1400 8888 0 2 77 4 12 17 65 2 2
543 2 2 4 77 77 7 3 22 2200 77777 77777 7 77 4 12 21 55 2 7
544 2 2 4 77 77 8 2 20 1900 77777 77777 2 77 4 12 51 65 2 7
545 2 1 4 77 77 8 3 14 2100 8888 0 7 77 4 12 29 90 2 1
546 3 2 3 77 77 8 3 16 2310 8888 77 77 77 4 13 28 60 2 1
547 2 2 3 77 77 8 3 14 1830 8888 0 7 77 4 11 28 50 1 1
548 3 2 4 77 77 8 3 13 930 3 47 77 77 4 13 31 45 2 1
549 2 1 3 77 77 8 1 10 1930 8888 0 7 77 4 12 92 70 2 1
550 2 1 3 77 77 8 3 19 900 8888 0 2 77 4 12 24 50 2 1
551 1 2 1 77 77 8 3 22 1830 10 167 77 77 4 12 21 90 2 1
552 2 2 2 77 77 8 3 27 2300 6 99 8 77 4 14 18 60 2 1
553 2 1 2 6 77 8 1 31 2030 8888 0 3 77 4 15 74 50 1 1
554 1 2 4 77 77 7 4 1 2300 8888 0 8 8 4 16 15 90 2 2
555 2 2 4 77 77 7 3 12 1200 8888 0 5 77 4 19 38 55 2 2
556 1 2 7 77 77 7 4 9 2200 3 85 8 8 4 19 10 90 2 1
557 2 1 7 77 77 8 1 12 8888 8888 0 3 77 4 20 98 90 2 1
558 2 2 4 77 77 8 3 17 200 3 136 8 77 4 21 35 60 2 1
559 4 2 1 77 77 8 4 2 2130 1 121 8 8 4 21 19 60 2 1
560 3 2 5 77 77 8 4 5 1350 13 94 77 77 4 25 20 65 2 1
561 3 2 5 77 77 8 4 2 2100 8 71 77 77 4 25 23 85 2 1
562 3 2 5 77 77 8 4 1 2130 2 133 77 77 4 27 26 60 2 1
563 2 1 1 77 77 8 1 16 200 8888 0 3 77 4 26 100 90 2 1
564 2 1 4 77 77 8 2 15 1700 8888 0 7 6 4 26 70 90 2 1
565 1 1 5 77 77 8 8 26 1445 8888 0 1 77 4 25 242 60 2 1
566 2 1 3 77 77 8 10 18 2100 8888 0 2 77 4 27 191 60 2 2
567 1 2 5 77 77 8 3 25 130 8888 0 7 77 4 27 33 55 2 1
568 3 2 5 77 77 8 4 1 1900 7 201 77 77 4 20 19 90 2 1
569 2 1 3 77 77 8 11 15 1100 8888 0 1 77 5 3 169 90 2 3
570 3 1 4 77 77 8 4 21 1750 9 155 77 77 5 3 12 60 2 1
571 3 1 3 77 77 8 4 20 135 77777 88 77 77 5 5 15 60 2 1
572 2 2 3 77 77 8 4 14 650 8888 0 2 77 5 5 21 90 2 7
573 3 2 3 77 77 8 4 6 2025 8888 21 77 77 4 29 23 60 2 1
574 3 2 3 77 77 8 4 20 300 7 49 77 77 5 6 16 60 1 1
575 3 2 3 77 77 8 4 2 755 11 85 77 77 5 5 33 65 1 1
576 3 2 1 77 77 8 5 9 2340 4 69 77 77 5 9 888 60 2 1
577 1 2 1 77 77 8 4 28 230 8888 0 7 8 5 6 8 90 2 1
578 3 2 3 77 77 8 4 21 1625 4 40 77 77 5 9 18 60 2 1
579 3 2 1 77 77 8 4 22 1208 4 178 77 77 5 12 20 60 2 1
580 1 2 3 1 2 8 4 30 530 8888 0 8 8 5 11 11 60 2 1
581 2 1 4 77 77 8 4 29 230 8888 0 2 77 5 11 12 60 2 8
582 2 1 3 77 77 1 11 26 2320 8888 0 2 77 5 12 532 60 1 1
583 2 1 5 77 77 8 11 10 800 8888 0 7 77 5 12 183 60 1 1
584 2 1 5 3 6 8 7 4 1912 8888 0 2 77 5 12 312 60 1 2
585 2 1 5 77 77 8 3 30 1400 8888 0 7 77 5 10 41 60 2 1
586 1 2 7 3 77 8 4 23 2000 8888 0 8 8 5 10 17 60 2 1
587 1 2 5 77 77 8 4 16 100 8888 0 8 8 5 16 30 60 2 1
588 2 7 4 77 77 7 88 88 8888 77777 77777 2 77 5 18 888 90 2 7
589 3 2 3 77 77 8 5 11 1100 5 89 77 77 5 18 7 60 2 1
590 2 1 7 77 77 8 1 28 100 8888 0 2 77 5 17 109 60 1 3
591 3 1 4 77 77 8 5 9 2115 4 159 77 77 5 17 8 60 2 1
592 2 1 5 77 77 8 6 16 2000 8888 0 3 77 5 20 338 60 2 1
593 2 1 7 77 77 8 3 31 156 8888 0 2 77 5 23 53 60 1 1
594 1 2 4 77 77 8 5 10 100 5 25 4 77 5 24 14 90 2 1
595 3 2 1 77 77 8 4 18 1400 7 216 77 77 5 25 37 60 2 1
596 1 2 4 77 77 8 5 13 1600 8888 0 8 8 5 25 12 90 2 1
597 1 2 2 77 77 8 5 14 2115 8888 0 8 8 5 26 12 60 2 1
598 3 1 3 77 77 8 5 9 2205 3 32 77 77 5 26 17 60 2 1
599 2 1 5 77 77 8 5 11 400 8888 0 7 77 5 26 15 90 2 1
600 2 2 2 77 77 8 4 3 630 8888 0 3 77 5 26 53 60 1 1
601 2 1 6 3 2 8 5 6 2345 8888 0 4 2 5 31 25 90 1 1
602 3 2 3 2 77 8 5 15 1538 14 103 77 77 6 1 17 60 2 1
603 2 1 3 77 77 8 3 15 2230 8888 0 2 77 6 3 80 90 1 1
604 3 2 3 77 77 8 5 11 2300 7 35 77 77 6 6 26 60 1 1
605 1 2 5 77 77 8 5 25 100 8888 0 2 77 6 6 12 60 2 1
606 3 2 3 77 77 8 5 15 1000 2 66 77 77 6 7 23 60 2 1
607 3 2 3 77 77 8 5 18 2130 8 50 77 77 6 7 20 60 1 1
608 1 2 1 77 77 8 5 14 2330 9 380 8 8 6 7 24 60 2 1
609 2 1 3 77 77 8 3 10 2030 8888 0 2 77 6 8 90 90 2 2
610 2 1 3 77 77 8 5 17 200 77777 45 5 77 6 9 23 60 2 1
611 1 1 3 77 77 8 5 1 2200 8888 0 8 8 6 9 39 60 2 2
612 1 2 4 77 77 8 5 19 2030 8888 0 8 8 6 13 25 60 2 1
613 2 1 3 77 77 8 4 2 1530 8888 0 2 77 6 13 72 90 2 2
614 2 1 3 77 77 8 3 24 8888 8888 0 2 7 6 14 82 60 2 2
615 1 8 1 3 77 8 5 19 30 8888 0 8 8 6 15 27 90 2 1
616 3 2 3 77 77 8 5 23 1100 10 37 77 77 6 7 15 90 2 1
617 1 1 1 77 77 8 5 10 200 10 180 8 8 6 20 41 90 2 1
618 2 2 1 77 77 8 11 10 2230 8888 0 1 77 6 20 998 90 2 4
619 3 2 1 77 77 8 5 18 200 5 74 77 77 6 21 34 60 2 1
620 3 2 3 77 77 8 6 1 1535 4 30 77 77 6 21 20 60 2 1
621 3 2 3 77 77 8 6 4 2214 77777 34 77 77 6 23 19 60 1 1
622 3 2 3 77 77 8 5 20 1920 4 33 77 77 6 22 33 60 1 1
623 3 3 3 7 77 8 6 18 1954 77777 45 77 77 6 23 5 60 2 1
624 1 2 1 77 77 8 5 30 2315 5 81 8 4 6 24 25 90 2 1
625 1 2 1 77 77 8 6 3 115 8888 0 7 77 6 27 24 90 2 1
626 3 3 3 77 77 8 6 13 300 4 118 77 77 6 28 15 60 1 1
627 3 2 3 77 77 8 6 13 1842 5 43 77 77 6 28 15 30 2 1
628 3 2 3 77 77 8 5 31 2030 1 50 77 77 6 30 30 60 1 2
629 1 1 2 77 77 8 5 26 2200 1 173 7 77 6 30 35 60 1 1
630 1 2 7 77 77 8 7 2 2000 8888 0 8 8 7 6 4 90 2 1
631 1 1 4 77 77 8 6 27 1700 8888 0 4 77 7 6 9 60 2 1
632 1 2 4 77 77 8 7 2 1700 8888 0 8 8 7 7 5 60 2 1
633 3 1 4 77 77 8 6 16 1800 8 99 77 77 7 8 22 60 2 1
634 3 1 4 77 77 8 6 22 200 3 56 77 77 7 7 15 60 1 1
635 1 2 1 77 77 8 6 16 930 5 240 8 8 7 11 25 90 2 1
636 1 2 2 77 77 8 6 9 1040 8888 0 5 6 7 13 34 60 2 1
637 2 2 3 77 77 8 6 12 8 8888 28 77 77 7 12 30 60 2 1
638 3 2 1 2 77 8 6 1 300 2 122 77 77 7 14 43 60 2 1
639 3 2 4 77 77 8 7 3 40 3 60 77 77 7 21 18 60 2 1
640 3 2 4 77 77 8 6 25 1900 8888 25 77 77 7 19 24 60 2 1
641 1 2 4 77 77 8 7 4 2100 3 82 77 77 7 19 15 60 2 1
642 3 2 1 77 77 8 6 18 200 4 156 77 77 7 20 32 60 2 1
643 2 2 4 77 77 8 6 26 2000 5 20 6 77 7 20 24 60 2 1
644 3 8 3 77 77 8 7 3 500 2 43 77 77 7 21 18 60 2 1
645 1 2 1 77 77 8 7 1 2130 8888 0 5 8 7 22 21 60 2 1
646 1 1 4 77 77 8 6 27 1700 14 81 1 77 7 25 28 60 2 1
647 3 2 4 77 77 8 8 15 1050 8 22 77 77 8 30 15 60 2 1
648 1 2 1 77 77 8 8 30 8888 8888 0 8 5 8 30 777 60 2 1
649 2 2 4 77 77 8 8 12 1845 5 91 88 88 8 30 18 90 2 1
650 1 1 2 77 77 8 8 10 1120 8888 0 8 77 8 29 19 60 2 1
651 3 1 4 77 77 8 8 16 1622 4 64 77 77 8 26 10 60 1 1
652 3 2 3 77 77 8 8 14 245 3 36 77 77 8 31 17 60 2 1
653 3 1 4 77 77 8 8 16 1600 3 50 77 77 9 6 22 60 2 1
654 3 2 4 7 77 8 8 13 1900 7 72 77 77 9 7 25 60 2 1
655 3 2 3 77 77 8 8 9 2300 6 98 77 77 9 7 29 60 2 1
656 1 2 1 77 77 8 8 18 100 8888 0 5 8 9 9 22 60 2 1
657 1 2 5 77 77 8 9 4 1530 8888 0 8 8 9 21 17 60 2 1
658 1 1 5 77 77 8 8 8 1530 8888 0 8 5 9 21 44 60 2 1
659 1 2 2 77 77 8 9 5 1200 5 52 8 8 9 20 15 60 2 1
660 3 2 2 77 77 8 8 29 730 3 92 77 77 9 22 24 60 2 1
661 1 2 2 77 77 8 9 10 2345 8888 0 8 8 9 22 12 60 1 1
662 3 2 3 77 77 8 8 23 130 8 67 77 77 9 22 30 60 2 1
663 1 2 1 77 77 8 8 20 130 2 28 8 8 9 23 34 90 2 1
664 1 1 7 77 77 8 9 6 1645 5 85 8 8 9 23 17 60 2 1
665 1 2 1 77 77 8 9 4 400 5 133 77 77 9 26 22 60 2 1
666 1 2 4 77 77 8 9 12 2045 6 80 5 8 9 26 14 60 2 1
667 1 2 1 77 77 8 8 20 55 2 183 8 8 9 27 38 90 2 1
668 3 2 2 77 77 8 8 18 110 77777 59 77 77 9 28 41 60 2 1
669 1 2 4 77 77 8 9 14 1900 8888 0 8 8 9 28 14 60 2 1
670 1 2 2 77 77 8 9 13 100 8888 0 8 5 9 28 15 60 2 1
671 1 2 2 77 77 8 9 20 1940 8888 68 8 8 9 28 8 60 1 1
672 3 1 4 7 77 8 8 21 1810 1 139 77 77 9 29 39 60 2 1
673 3 2 2 77 77 8 9 18 224 2 84 77 77 9 30 10 60 1 1
674 1 2 1 2 77 8 8 24 300 3 205 7 77 10 4 41 60 2 1
675 3 8 1 77 77 8 9 24 300 2 90 77 77 10 5 11 60 2 1
676 3 2 1 77 77 8 9 27 200 8 139 77 77 10 9 12 60 2 1
677 1 2 1 77 77 8 9 15 2215 3 148 1 8 10 5 20 60 2 1
678 3 1 7 7 77 8 8 24 8888 3 100 77 77 9 14 21 60 2 1
679 3 2 1 77 77 8 8 1 230 3 97 77 77 9 12 42 60 2 1
680 1 1 4 77 77 8 8 23 2330 8888 0 8 8 9 12 20 60 2 1
681 1 2 4 77 77 8 8 26 2230 3 56 1 77 9 14 19 60 2 1
682 3 8 7 77 77 8 8 5 2130 77777 45 77 77 9 14 40 60 2 1
683 1 2 7 77 77 8 8 24 30 5 80 77 77 9 19 26 60 2 1
684 3 2 7 77 77 8 8 25 630 6 39 77 77 9 19 25 60 2 1
685 4 1 1 77 77 8 2 11 8888 8888 0 7 77 9 16 217 60 2 1
686 3 2 1 77 77 8 9 2 430 4 178 77 77 9 21 19 60 2 1
687 2 1 1 77 77 8 4 1 2230 8888 0 7 77 10 18 200 60 2 1
688 3 2 1 77 77 8 10 3 2050 5 223 77 77 10 14 11 60 2 1
689 3 2 2 77 77 8 9 19 1528 2 124 77 77 10 13 24 60 2 1
690 1 2 3 77 77 8 9 25 145 8888 0 8 8 10 14 19 60 1 1
691 1 1 3 77 77 8 9 21 2030 5 55 5 8 10 11 20 60 2 1
692 1 2 2 77 77 8 10 6 2320 1 66 77 77 10 13 7 60 2 1
693 3 1 2 77 77 8 10 8 630 5 363 77 77 10 26 18 60 2 1
694 3 2 2 77 77 8 10 6 223 77777 70 77 77 10 26 20 60 1 1
695 3 2 1 77 77 8 9 9 1900 17 215 77 77 10 27 48 60 2 1
696 3 2 1 77 77 8 10 16 330 8 391 77 77 10 27 11 60 2 1
697 1 2 5 77 77 8 10 5 130 11 55 5 8 10 27 22 60 2 1
698 2 2 1 77 77 8 6 1 1800 11 25 77 77 10 28 149 60 2 1
